<svg xmlns="http://www.w3.org/2000/svg" width="22.013" height="21.96" viewBox="0 0 22.013 21.96">
  <g id="bank" transform="translate(0 -0.605)" opacity="0.5">
    <path d="M89.39,217.275h2.6v5.492h-2.6Z" transform="translate(-85.532 -207.318)" fill="#919fa3"/>
    <path d="M179.7,217.275h2.6v5.492h-2.6Z" transform="translate(-171.944 -207.318)" fill="#919fa3"/>
    <path d="M270,217.275h2.6v5.492H270Z" transform="translate(-258.346 -207.318)" fill="#919fa3"/>
    <path d="M360.3,217.275h2.6v5.492h-2.6Z" transform="translate(-344.749 -207.318)" fill="#919fa3"/>
    <path d="M87.745.665,80.43,5.1H95.5L88.184.665a.431.431,0,0,0-.439,0Z" transform="translate(-76.958 0)" fill="#919fa3"/>
    <path d="M59.017,136.667v-1.832H40.5v1.832a.432.432,0,0,0,.432.432H58.585A.432.432,0,0,0,59.017,136.667Z" transform="translate(-38.752 -128.437)" fill="#919fa3"/>
    <path d="M58.585,374.505H40.932a.432.432,0,0,0-.432.432v1.832H59.017v-1.832A.432.432,0,0,0,58.585,374.505Z" transform="translate(-38.752 -357.762)" fill="#919fa3"/>
    <path d="M0,457.387v1.4a.432.432,0,0,0,.432.432H21.581a.432.432,0,0,0,.432-.432v-1.4a.432.432,0,0,0-.432-.432H.432A.432.432,0,0,0,0,457.387Z" transform="translate(0 -436.653)" fill="#919fa3"/>
  </g>
</svg>
