<svg xmlns="http://www.w3.org/2000/svg" width="29.608" height="30.1" viewBox="0 0 29.608 30.1">
  <g id="Group_1819" data-name="Group 1819" transform="translate(-1216.349 -36)">
    <line id="Line_5" data-name="Line 5" y2="27.898" transform="translate(1217.349 37)" fill="none" stroke="#3c4b5a" stroke-linecap="round" stroke-width="2"/>
    <line id="Line_8" data-name="Line 8" y2="27.898" transform="translate(1244.957 37)" fill="none" stroke="#3c4b5a" stroke-linecap="round" stroke-width="2"/>
    <line id="Line_6" data-name="Line 6" y2="22.844" transform="translate(1226.783 42.257)" fill="none" stroke="#3c4b5a" stroke-linecap="round" stroke-width="2"/>
    <line id="Line_7" data-name="Line 7" y2="13.208" transform="translate(1236.217 51.691)" fill="none" stroke="#3c4b5a" stroke-linecap="round" stroke-width="2"/>
  </g>
</svg>
