<svg xmlns="http://www.w3.org/2000/svg" width="56.477" height="53.849" viewBox="0 0 56.477 53.849">
  <g transform="translate(-38.036 -36.319)">
    <path d="M198.4,53.75a.682.682,0,0,0-.931-.249l-7.73,4.463-7.73-4.463a.682.682,0,1,0-.682,1.18l7.73,4.463v8.925a.682.682,0,1,0,1.363,0V59.144l7.73-4.463A.681.681,0,0,0,198.4,53.75Z" transform="translate(-103.976 -12.431)" fill="#dfecdc"/>
    <path d="M60.469,89.609l-2.328-2.328a.681.681,0,0,0-.964,0,4.573,4.573,0,0,1-6.467,0,.681.681,0,0,0-.964,0l-2.329,2.328a.681.681,0,0,0,0,.964,9.229,9.229,0,0,0,13.052,0A.682.682,0,0,0,60.469,89.609Z" transform="translate(-6.679 -36.923)" fill="#78a86d" opacity="0.402"/>
    <path d="M116.594,50.41a.752.752,0,1,0-.752-.752A.753.753,0,0,0,116.594,50.41Z" transform="translate(-56.594 -9.155)" fill="#c1d8bb"/>
    <path d="M116.594,63.759a.752.752,0,1,0,.752.752A.753.753,0,0,0,116.594,63.759Z" transform="translate(-56.594 -19.959)" fill="#c1d8bb"/>
    <circle cx="0.752" cy="0.752" r="0.752" transform="translate(59.248 47.849)" fill="#c1d8bb"/>
    <circle cx="0.752" cy="0.752" r="0.752" transform="translate(59.248 51.899)" fill="#c1d8bb"/>
    <path d="M82.417,137.668a.681.681,0,0,1-.682-.682V117.941a.682.682,0,0,1,1.363,0v19.046A.681.681,0,0,1,82.417,137.668Z" transform="translate(-31.785 -58.873)" fill="#78a86d" opacity="0.15"/>
    <path d="M114.549,132.281a.681.681,0,0,1-.682-.682V117.94a.682.682,0,0,1,1.363,0V131.6A.681.681,0,0,1,114.549,132.281Z" transform="translate(-55.157 -58.873)" fill="#78a86d" opacity="0.15"/>
    <path d="M146.68,124.707a.681.681,0,0,1-.682-.682v-6.085a.682.682,0,1,1,1.363,0v6.085A.681.681,0,0,1,146.68,124.707Z" transform="translate(-78.528 -58.873)" fill="#78a86d" opacity="0.15"/>
    <path d="M178.812,137.668a.681.681,0,0,1-.682-.682V117.941a.682.682,0,1,1,1.363,0v19.046A.681.681,0,0,1,178.812,137.668Z" transform="translate(-101.9 -58.873)" fill="#78a86d" opacity="0.15"/>
    <path d="M210.943,149.041a.681.681,0,0,1-.682-.682V117.941a.682.682,0,0,1,1.363,0v30.419A.681.681,0,0,1,210.943,149.041Z" transform="translate(-125.271 -58.873)" fill="#78a86d" opacity="0.15"/>
    <path d="M141.909,162.265a.681.681,0,0,1-.682-.682V140.941h-4.356v20.643a.682.682,0,0,1-1.363,0V140.26a.681.681,0,0,1,.682-.682h5.72a.681.681,0,0,1,.682.682v21.324A.681.681,0,0,1,141.909,162.265Z" transform="translate(-70.898 -75.107)" fill="#78a86d"/>
    <g transform="translate(38.036 36.319)">
      <path d="M198.148,41.069l-8.07-4.659a.681.681,0,0,0-.682,0l-8.07,4.659a.681.681,0,0,0-.341.59v9.319a.681.681,0,0,0,.341.59l8.07,4.659a.681.681,0,0,0,.682,0l8.07-4.659a.681.681,0,0,0,.341-.59V41.66A.681.681,0,0,0,198.148,41.069Zm-1.022,9.516-7.389,4.266-7.389-4.266V42.053l7.389-4.266,7.389,4.266Z" transform="translate(-142.012 -36.319)" fill="#3c4b5a"/>
      <path d="M41.221,58.055a.68.68,0,0,0,.482-.2l2.329-2.328a.682.682,0,0,0,0-.964,4.573,4.573,0,0,1,0-6.467h0a4.573,4.573,0,0,1,6.467,0h0a4.573,4.573,0,0,1,0,6.467.682.682,0,0,0,0,.964l2.328,2.328a.682.682,0,0,0,.964,0,9.229,9.229,0,1,0-13.052,0A.677.677,0,0,0,41.221,58.055Zm12.067-1.666-1.371-1.371a5.94,5.94,0,0,0,0-7.377l.651-.652.72-.72a7.869,7.869,0,0,1,0,10.119ZM47.265,43.463a7.806,7.806,0,0,1,5.06,1.842l-1.371,1.371a5.94,5.94,0,0,0-7.377,0l-1.371-1.371A7.806,7.806,0,0,1,47.265,43.463ZM41.241,46.27l.21.21,1.161,1.162a5.94,5.94,0,0,0,0,7.377l-1.371,1.371a7.868,7.868,0,0,1,0-10.119Z" transform="translate(-38.036 -40.524)" fill="#3c4b5a"/>
      <path d="M128.652,50.528h7.223a.682.682,0,0,0,0-1.363h-7.223a.682.682,0,0,0,0,1.363Z" transform="translate(-103.451 -45.663)" fill="#3c4b5a"/>
      <path d="M128.652,65.382h7.223a.682.682,0,1,0,0-1.363h-7.223a.682.682,0,1,0,0,1.363Z" transform="translate(-103.451 -56.467)" fill="#3c4b5a"/>
      <path d="M128.652,80.235h7.223a.682.682,0,0,0,0-1.363h-7.223a.682.682,0,0,0,0,1.363Z" transform="translate(-103.451 -67.271)" fill="#3c4b5a"/>
      <path d="M128.652,95.089h7.223a.682.682,0,1,0,0-1.363h-7.223a.682.682,0,1,0,0,1.363Z" transform="translate(-103.451 -78.075)" fill="#3c4b5a"/>
      <path d="M77.648,196.845a.681.681,0,0,0,.682-.682V187.8a.681.681,0,0,0-.682-.682H71.929a.681.681,0,0,0-.682.682v8.363a.682.682,0,0,0,1.363,0v-7.681h4.356v7.681A.681.681,0,0,0,77.648,196.845Z" transform="translate(-62.193 -146.006)" fill="#3c4b5a"/>
      <path d="M103.378,168.043v13.75a.682.682,0,0,0,1.363,0V168.724H109.1v13.068a.682.682,0,1,0,1.363,0v-13.75a.681.681,0,0,0-.682-.682H104.06a.681.681,0,0,0-.682.682Z" transform="translate(-85.564 -131.635)" fill="#3c4b5a"/>
      <path d="M168.323,196.845a.681.681,0,0,0,.682-.682v-7.681h4.356v7.681a.682.682,0,1,0,1.363,0V187.8a.681.681,0,0,0-.682-.682h-5.719a.681.681,0,0,0-.682.682v8.363A.681.681,0,0,0,168.323,196.845Z" transform="translate(-132.306 -146.006)" fill="#3c4b5a"/>
      <path d="M92.6,147.678H48.581V117.941a.682.682,0,0,0-1.363,0v30.419a.681.681,0,0,0,.682.682H92.6a.682.682,0,1,0,0-1.363Z" transform="translate(-44.715 -95.192)" fill="#3c4b5a"/>
    </g>
  </g>
</svg>
