<svg xmlns="http://www.w3.org/2000/svg" width="35.748" height="46.961" viewBox="0 0 35.748 46.961">
  <g id="user" transform="translate(-61.127)">
    <g transform="translate(61.127)">
      <path d="M89.865,30.494a6.2,6.2,0,0,1-6.247-5.637,10.6,10.6,0,0,0,2.441-2.414,14.671,14.671,0,0,0,2.643-6.9,1.051,1.051,0,0,0,.265-.373,11.38,11.38,0,0,0,.883-4.429C89.851,4.82,85.383,0,79.89,0a9.248,9.248,0,0,0-4.147.984,7.287,7.287,0,0,0-1.466.263,8.238,8.238,0,0,0-5.17,4.71,11.7,11.7,0,0,0-.58,7.678,12.371,12.371,0,0,0,.537,1.626,1.051,1.051,0,0,0,.248.361,13.2,13.2,0,0,0,5.073,9.225,6.2,6.2,0,0,1-6.247,5.646,7.266,7.266,0,0,0-7.01,7.252V45.9a1.057,1.057,0,0,0,1.057,1.057H95.818A1.057,1.057,0,0,0,96.875,45.9V37.746A7.266,7.266,0,0,0,89.865,30.494Zm-15-27.215a5.21,5.21,0,0,1,1.211-.2,1.056,1.056,0,0,0,.444-.12,7.185,7.185,0,0,1,3.37-.848c4.327,0,7.847,3.871,7.847,8.629,0,.143,0,.285-.01.426a4.61,4.61,0,0,0-3.293-1.382H77.227A1.968,1.968,0,0,1,75.4,8.553a1.3,1.3,0,0,0-2.457.162A9.808,9.808,0,0,1,70.549,13C69.486,8.622,71.4,4.279,74.864,3.279Zm-.92,18.288a12.436,12.436,0,0,1-2.563-6.436,11.982,11.982,0,0,0,3.076-4.31,4.123,4.123,0,0,0,.328.272,4.053,4.053,0,0,0,2.442.81h7.207a2.512,2.512,0,0,1,2.291,1.487c0,.008,0,.015,0,.022,0,5.969-3.463,10.825-7.721,10.825A6.613,6.613,0,0,1,73.944,21.567Zm2.43,4.319a7.695,7.695,0,0,0,5.256.006A8.28,8.28,0,0,0,84.7,30.878l-5.552,7.907a.183.183,0,0,1-.3,0L73.3,30.876A8.281,8.281,0,0,0,76.373,25.887ZM94.76,44.846H63.242v-7.1A5.149,5.149,0,0,1,68.385,32.6a9.064,9.064,0,0,0,3.084-.652L77.122,40a2.3,2.3,0,0,0,1.88.977h0A2.3,2.3,0,0,0,80.883,40l5.652-8.049a8.705,8.705,0,0,0,3.082.651,5.149,5.149,0,0,1,5.144,5.144Z" transform="translate(-61.127)" fill="#919fa3"/>
    </g>
  </g>
</svg>
