<svg xmlns="http://www.w3.org/2000/svg" width="16" height="16" viewBox="0 0 16 16">
  <path d="M0,10.2H16V0H0Z" fill="#ee293d"/>
  <path d="M0,20H16V10H0Z" transform="translate(0 -4)" fill="#231f20"/>
  <path d="M3.5,10.6h9V9.4h-9Z" transform="translate(0 -2)" fill="#fff"/>
</svg>
