<svg xmlns="http://www.w3.org/2000/svg" width="16.155" height="16.155" viewBox="0 0 16.155 16.155">
  <g transform="translate(0.077 0.077)">
    <path d="M.1.1h16v16H.1Z" transform="translate(-0.1 -0.1)" stroke="#000" stroke-miterlimit="3.864" stroke-width="0.155"/>
    <path d="M.6.6H15.5V15.5H.6Z" transform="translate(-0.1 -0.1)" fill="#fbf315"/>
    <path d="M8.1,9.843,12.752,14.4l1.861-1.823L9.961,8.021l.93-.911V5.363l.62-.608V6.2l.62.608,2.326-2.278L15,5.135A4.1,4.1,0,0,0,13.76,2.4a2.053,2.053,0,0,0-2.869-.076L8.72,4.451l.543.532L8.022,6.2,6.86,5.059,7.4,4.527l-2.171-2.2A2.053,2.053,0,0,0,2.363,2.4,3.9,3.9,0,0,0,1.2,5.135l.62-.608,2.248,2.2.62-.608V4.679l.62.608V7.033l.93.987L1.588,12.577,3.448,14.4,8.1,9.843Z" transform="translate(-0.1 -0.1)"/>
  </g>
</svg>
